{
  "type": "service_account",
  "project_id": "blog-api-32cfb",
  "private_key_id": "a54c1de69d9b774b77d4ba6430bfe437a23bbfaf",
  "private_key": "-----BEGIN PRIVATE KEY-----\nMIIEvgIBADANBgkqhkiG9w0BAQEFAASCBKgwggSkAgEAAoIBAQDmjnIFaEJmVDU+\nKNUPY50655R7C5NkBWInMLBlau2/P7J7CmfVZTEo603veYsDqxCWDd0M74HYK0sP\nMq9mbQrVl8g6QSEBcZJaTZE3OxRPiUokcXHTjYMS1erAsIeP16KtClwFpA5+f5Ow\n+l8hDezZO3NsCT1YcGpSjc6FjbMB5xG3ZTit7T1VoP+1h5SG3aWwt7XcXGBIOSTu\n7oJ58TXNujrr9WRm06u8S7a9WfA1rq+q2gS/nVq4Yxk9PHVqCXfqnFNtHBQVotZl\n8Hs33749lxwD5oYrcc5rhNgkK97Z9uCPxl8cb/RRh6KppjeIawyu0RxpnovjcUCD\ngRJPtmljAgMBAAECggEACU2MNZ9fkz6i34dxzWhMn/r60DF7hG6JLWdfrUuTedSp\njX49xD1pReV0u7tiRhh7RkIEITz9tsQGn3P1hQ6l9MR9gk4PpAOuST0nvJClTJEy\npFqfrfGlyloA5bMT+8i7QuSnQOimtIYUIPDea1WGAl/wgkriDzUsjo/t/T7x99Vh\npQBrG/sGOrQ/0fAYDGqWx1vqjXDjPWEOLGbInNRmda3weyTzwRxtn6T0TapTvyIt\n/76VYL12dCnP2gt8T49007PHoQ1kLsxM8R2EoIbU0Jdastw+xjLJVvsVtcQSCT7z\n7ZImEWxcNOHCDEUJ7kupRQes26ErF/0gmdJ67nSPTQKBgQD/T+boblmcC70ufCnM\nyQjDpnmXeUXEHYyW/dUcCebutOpd8LB6EL13CoTj1gKCi5k/SlLpirXfqtqkBTjP\nVUhIY9uXEMyDy37iC5sQ7aNyAkrF7hE3bf1QiIvxwSSSLf1wjiLrfZF+JFw1hpic\nPDfj/3vin0Cj0AdIL/SwzReR3wKBgQDnLXfwlv18pGzR/l7DSZCmTkH/5KZO9V7J\nP+sVvvofU9gE5v6QODDKyKoJja0FA6tKEygu1y7e+1M0Bg849NW96mXIizm6b4Fr\n4jrGICrtYodWzuQ/OtZp7DUGkWT3m8cW3az5SbK1nXUImoBe584vrjmWz6Prz0rh\nrrzx9nzA/QKBgDGnjpch7xekSNTjnRWQ+71hgUBue50ayh8Lmwjq/Bjs4rAGgawb\n2V1vlEzjcHWHRPTENb/qFFk912wS/+uDAJ3jne+RetUfHLxF2ZC/RwyDWZuJI5wO\nLjgddmo8UCqF+0aKvkvijgtkcvKODNxF8fDL3YJDysSRTvlBKmvAV5ctAoGBANYQ\n5nVke4nFf/bcAsf3APjekoLwKYgH8iONCpTyaQ5FR00S0TqerZ+5PKroBAUWprBL\nGPR20bItK5iK2+Gz5ZCc0m9nbKdUxZUuwZnhA58Zk5Uws25Rf2ZKEbfpPoOCPlLQ\nJnIYamF+UncLCj/XirfgLveVgobDRuXANrofstnJAoGBAL4ut2aBGwoLhg3Hhd7B\nkP18uZJmUXBgE5st0b+sMMJD8cS8dAA6VxsdV3ouRGgDP2xtE9BjVpR9JHV3kMhS\n/BmeaqPQLz/rR1K2C+JmjTMpAs8SC1wlgbdGMTfwgKRE2B5ioOtozd9WkOoRa6hd\nwkJuXeriWkps0QETg6hANzFO\n-----END PRIVATE KEY-----\n",
  "client_email": "firebase-adminsdk-ui6lj@blog-api-32cfb.iam.gserviceaccount.com",
  "client_id": "116263512588697871152",
  "auth_uri": "https://accounts.google.com/o/oauth2/auth",
  "token_uri": "https://oauth2.googleapis.com/token",
  "auth_provider_x509_cert_url": "https://www.googleapis.com/oauth2/v1/certs",
  "client_x509_cert_url": "https://www.googleapis.com/robot/v1/metadata/x509/firebase-adminsdk-ui6lj%40blog-api-32cfb.iam.gserviceaccount.com"
}
